%YAML 1.1
%TAG !u! tag:unity3d.com,2011:
--- !u!114 &11400000
MonoBehaviour:
  m_ObjectHideFlags: 0
  m_PrefabParentObject: {fileID: 0}
  m_PrefabInternal: {fileID: 0}
  m_GameObject: {fileID: 0}
  m_Enabled: 1
  m_EditorHideFlags: 0
  m_Script: {fileID: 11500000, guid: 6f0f9994f7abd634c9eef29c6c9833f1, type: 3}
  m_Name: PlanetSettings
  m_EditorClassIdentifier: 
  minScreenPercentage: 0.3
  nearestByRatingPlanetCount: 10
  minRating: 0
  maxRating: 20000
