%YAML 1.1
%TAG !u! tag:unity3d.com,2011:
--- !u!114 &11400000
MonoBehaviour:
  m_ObjectHideFlags: 0
  m_PrefabParentObject: {fileID: 0}
  m_PrefabInternal: {fileID: 0}
  m_GameObject: {fileID: 0}
  m_Enabled: 1
  m_EditorHideFlags: 0
  m_Script: {fileID: 11500000, guid: 969c51e6e16239d4fa36fd0d728089b6, type: 3}
  m_Name: Tile_58
  m_EditorClassIdentifier: 
  cells:
  - hasPlanet: 1
  - hasPlanet: 0
  - hasPlanet: 0
  - hasPlanet: 1
  - hasPlanet: 0
  - hasPlanet: 0
  - hasPlanet: 1
  - hasPlanet: 0
  - hasPlanet: 0
  - hasPlanet: 1
  - hasPlanet: 0
  - hasPlanet: 0
  - hasPlanet: 1
  - hasPlanet: 0
  - hasPlanet: 0
  - hasPlanet: 1
